Nom d'utilisateur,Nom,Prénom,Total,Affectations diverses,Une fonction qui répète (version 2),Table de multiplication,Total,TEST
35000166,TEVANIN-SINGAÏNY,Vidjeyen,"0,333",Oui,Essayé,Essayé,"0,333",35000166
38008003,RIVIERE,Eva,"0,999",Oui,Oui,Oui,"0,999",38008003
39004044,MAILLOT,Rachel,"0,999",Oui,Oui,Oui,"0,999",39004044
40001600,Dijoux,Lucie,"0,999",Oui,Oui,Oui,"0,999",40001600
40001782,Lepinay,William,0,Non,Essayé,Essayé,0,40001782
40001919,Bel,Ian,"0,999",Oui,Oui,Oui,"0,999",40001919
40002039,Grondin,Jérémy,"0,999",Oui,Oui,Oui,"0,999",40002039
40005992,Boyer,Alexandre,"0,999",Oui,Oui,Oui,"0,999",40005992
40009893,Hibon,Coline,"0,999",Oui,Oui,Oui,"0,999",40009893
40010308,Normandin,Léo,"0,999",Oui,Oui,Oui,"0,999",40010308
41000056,Faubourg,Audrey,"0,999",Oui,Oui,Oui,"0,999",41000056
41000236,Pontalba,Adélaïde,"0,999",Oui,Oui,Oui,"0,999",41000236
41000251,Devillers,Simon,"0,999",Oui,Oui,Oui,"0,999",41000251
41000416,GUICHARD,Alan,"0,999",Oui,Oui,Oui,"0,999",41000416
41000550,ROBERT,Landry,"0,999",Oui,Oui,Oui,"0,999",41000550
41000556,Metro,Tino,"0,999",Oui,Oui,Oui,"0,999",41000556
41000592,Nicolas,SORRES,0,Essayé,Essayé,Essayé,0,41000592
41000839,Robert,Marine,"0,999",Oui,Oui,Oui,"0,999",41000839
41001019,bortel,Quentin,0,Essayé,Non,Essayé,0,41001019
41001072,Lauret,Julien,"0,999",Oui,Oui,Oui,"0,999",41001072
41001370,Boutin,Sasha,"0,999",Oui,Oui,Oui,"0,999",41001370
41001504,Gonthier,Normann,"0,999",Oui,Oui,Oui,"0,999",41001504
41001712,Aye,Ethan,"0,999",Oui,Oui,Oui,"0,999",41001712
41001742,Vingadessin,Tristan,"0,999",Oui,Oui,Oui,"0,999",41001742
41002058,famandria,luka,"0,333",Oui,Non,Non,"0,333",41002058
41002091,Vissouvanadin,Romain,"0,999",Oui,Oui,Oui,"0,999",41002091
41002613,PAROS,Mattyeu,"0,999",Oui,Oui,Oui,"0,999",41002613
41002640,PO-HY THIAW,Mérédie,"0,999",Oui,Oui,Oui,"0,999",41002640
41002857,Mazaka,Alex,"0,999",Oui,Oui,Oui,"0,999",41002857
41003070,COMTE,Quentin,"0,999",Oui,Oui,Oui,"0,999",41003070
41003152,SAMAN,Mickael,0,Non,Non,Non,0,41003152
41004163,Bluker,Pharrell,"0,999",Oui,Oui,Oui,"0,999",41004163
41004467,TALERIEN,Thomas,"0,333",Oui,Essayé,Non,"0,333",41004467
41004574,Lebon,Julien,"0,999",Oui,Oui,Oui,"0,999",41004574
41004616,Sery,Sylvain,"0,999",Oui,Oui,Oui,"0,999",41004616
41005402,Moinahedja,Madi,"0,333",Oui,Essayé,Essayé,"0,333",41005402
41005961,MIRANVILLE,lionel,0,Non,Non,Non,0,41005961
41006687,Brillard,Etienne,"0,999",Oui,Oui,Oui,"0,999",41006687
41007782,NDIAYE,ELHADJI IBRAHIMA,"0,333",Oui,Non,Non,"0,333",41007782
41007825,ABDALLAH,farsidine,0,Essayé,Non,Non,0,41007825
410015060,RAMIDGE BANE,Yoven,"0,999",Oui,Oui,Oui,"0,999",410015060
41003028@co.univ-reunion.fr,RICHAND,Marius,"0,999",Oui,Oui,Oui,"0,999",41003028@co.univ-reunion.fr
eliyzzax,tougne,elisa,"0,999",Oui,Oui,Oui,"0,999",eliyzzax
Jacquielah12@,Jacquielah,Jaosoa,0,Non,Non,Non,0,Jacquielah12@
julien,Corre,Julien,"0,999",Oui,Oui,Oui,"0,999",julien
matthias.hoarau80@gmail.com,Hoarau,Matthias,"0,999",Oui,Oui,Oui,"0,999",matthias.hoarau80@gmail.com
oscar.dandeu3@gmail.com,Dandeu,Oscar,0,Essayé,Non,Essayé,0,oscar.dandeu3@gmail.com
36002625,Ramin,Flavia,0,Essayé,Essayé,Non,0,#N/D
39004648,BERNARD,Léa,"0,666",Oui,Oui,Non,"0,666",#N/D
3900616,Randria,Caroline,"0,999",Oui,Oui,Oui,"0,999",#N/D
40000892,PLANTE,Caroline,"0,666",Oui,Non,Oui,"0,666",#N/D
40005420,ATCHIAMAN,Emmeline,"0,999",Oui,Oui,Oui,"0,999",#N/D
41000146,ALAMELOU,Eloïse,"0,999",Oui,Oui,Oui,"0,999",#N/D
41000155,latchimy,lucas,"0,333",Oui,Essayé,Non,"0,333",#N/D
41000473,PAYET,Annaëlle,"0,999",Oui,Oui,Oui,"0,999",#N/D
41000848,Absalon,Florian,0,Non,Non,Non,0,#N/D
41001561,soilihi,malika,0,Non,Non,Non,0,#N/D
41002476,PATON,Amélie,"0,666",Oui,Oui,Essayé,"0,666",#N/D
41002947,Begue,Romain,"0,333",Oui,Essayé,Non,"0,333",#N/D
41004016,Laoussing,Mathis,"0,999",Oui,Oui,Oui,"0,999",#N/D
41004218,Petan-Ranguin,Noa,"0,999",Oui,Oui,Oui,"0,999",#N/D
41004298,Moimba,Cylia,"0,999",Oui,Oui,Oui,"0,999",#N/D
41004315@co.univ-reunion.fr,Jouan,Coralie,"0,999",Oui,Oui,Oui,"0,999",#N/D
41006817,Jean-Baptiste,Djibryll,"0,999",Oui,Oui,Oui,"0,999",#N/D
AIME98@DIOME,DIOME,AIME JEAN CHRYSOSTOM MOUSSA,"0,999",Oui,Oui,Oui,"0,999",#N/D
axelpene195@gmail.com,Pene,Axel,0,Essayé,Non,Essayé,0,#N/D
Seb,Techer,Sébastien,"0,999",Oui,Oui,Oui,"0,999",#N/D
T.M41000429,Moimba,Thomas,"0,999",Oui,Oui,Oui,"0,999",#N/D
