num,nom,prenom
40003138,ABDOU MADI,NASSUIFOUDINE
41003562,ANOARALY,ROBIN
40001919,BELOUGNE,YANN
41005226,BEN ALI,NAEL
41003789,CANIGUY,JEAN
41001504,GONTHIER,NORMANN
41006277,IDMONT,RAPHAEL
40002775,JAOSOA,JACQUIELAH
41003460,LAMY,NAOMY
39004044,MAILLOT,RACHEL
40002791,MEZINO,NICOLAS
41000236,PONTALBA,ADELAIDE
41004467,TALERIEN,THOMAS
41002091,VISSOUVANADIN-SOUBARETTY,ROMAIN
41000848,ABSALON,JEAN FLORIAN VALENTI
41006750,AHAMED,SAMIRDINE
40005420,ATCHIAMAN,EMMELINE
39004648,BERNARD,LEA
41004163,BLUKER,PHARRELL
41002728,BOINA,ZAITOUNI
41001019,BORTEL,QUENTIN
41001370,BOUTIN,SASHA
35002681,BOYER,JEREMY
41006687,BRILLARD,ETIENNE
40002105,CAROUPANIN-VINGADASSAMY,ADJAY
40002030,CARPAYE,CLOE
40003228,CLAIN,MARIE-MARTHE
41003070,COMTE,QUENTIN
41000119,CORRE,JULIEN
41006424,DAMOUR,YANN
41000954,DANDEU,OSCAR
41000251,DEVILLERS,SIMON
40001600,DIJOUX,LUCIE
41003900,DJOUMOI,ALIYAH
40003252,DORVAL,BENJAMIN
38000627,FUTLOO,HOUNAIZA
41000012,GAMIN,AURORE
40002039,GRONDIN,JEREMY
41004110,GRONDIN,NICOLAS
41003131,GRONDIN,THEO
41000416,GUICHARD,ALAN
40009893,HIBON,COLINE
41001908,HOARAU,DANY
41006130,HOARAU,LARISSA
41003992,HOARAU,MATTHIAS
41006644,HOARAU,MATTIS
40004979,HOUMADI ABDALLAH,ABDALLAH
41004016,LAOUSSING,MATHIS
41000155,LATCHIMY,LUCAS
41001072,LAURET,JULIEN
41004574,LEBON,JULIEN
40001782,LEPINAY,WILLIAM
40007879,MADI BOUROU,IBRAHIM
40005672,MAILLOT,THEO
41002857,MAZAKA,ALEX
41000556,METRO,TINO
41003927,MINIAMA,SIMON
41007132,MOUNIEN,LORENE
40010308,NORMANDIN,LEO ETIENNE THEOTIME
41002613,PAROS,MATTYEU
41002041,PASQUET,MAXENCE
41002476,PATON,AMELIE
41000473,PAYET,ANNAELLE
40000892,PLANTE,CAROLINE
41002640,PO-HY THIAW,MEREDIE
41003643,REHAULT,DANY
41003028,RICHAND,MARIUS
41000550,ROBERT,LANDRY
41000839,ROBERT,MARINE
40002565,SAMELOR,LEA
41004616,SERY,SYLVAIN
39005279,SEVINGUE,FLORINE
41000592,SORRES,NICOLAS XAVIER
36001044,SOUCRAMANIEN,VICTORIA
39001471,TECHER,SEBASTIEN
35000166,TEVANIN SINGAINY,VIDJEYEN
40004023,THOMAS,NELSON
41001517,TOUGNE,ELISA
40003333,TREMOULU,ALIZEE
41001742,VINGADESSIN,TRISTAN
41000146,ALAMELOU,ELOISE
41001712,AYE,ETHAN
41003514,BAILLIF,THOMAS
41002947,BEGUE,ROMAIN
39000674,BIGNON,PAUL
40005992,BOYER,ALEXANDRE
40005593,CATHERINE,TONY
39006815,DAMON,MATTHIAS
40005265,DAMOUR,JAMIL
41002058,FAMANDRIA,LUKA
41000056,FAUBOURG,AUDREY
41000078,FOLIO,FLORENCE
40002424,GIGAN,BRUNO
40001648,GRONDIN,GUILLAUME
41003688,GRONDIN,REGINALD
41006817,JEAN-BAPTISTE,DJIBRYLL
41005402,MADI,MOINAHEDJA
41003462,MAILLOT,ANNE-SOPHIE
40002620,MAROUVIN-VIRAMALE,SAMUEL
41005961,MIRANVILLE,LIONEL
41000429,MOIMBA,THOMAS
40004557,MOUSSA,JOHNY
40010041,NAYAGOM,PIERRE-ETIENNE
40008619,NOURRY,AURIANA
40001402,PAYET,NICOLAS
40004091,PENE,AXEL
41003834,PERRAULT,ANTHONY
39001876,RAMAYE,NELSON
41001506,RAMIDGE-BANE,YOVEN FRANCIS
40000938,ROBERT,BENJAMIN
41003152,SAMAN,MICKAEL
41001561,SOILIHI,MALIKA
41001269,VERDIN,LUCAS
