NUM;NOM;PRENOM;NOTE
40000406;ABDOUL HADJI;SARAH;ABI
41007124;ABDOUL HALECK;YASSER;1
40000700;ABDOUL KARIM;DHOULHADJI;ABI
41001190;ADRIEN;KENNY;5
41003651;AHAMADA CHAKA;KASSIM;ABI
41007574;AHAMADI;EL-FAHADI;ABI
41005725;AHAMADI;IMROUDDINE;ABI
41006995;AHMED;IKRAM;ABI
41006273;AL DARWISH;AHMED;2
41006198;ALAMELLE;THOMAS;ABI
41000620;ALI;IBRAHIM;2,8
41000878;ALIFANETY (KIRAN);KIRAN;ABI
41006958;AMADA;BEN DJADIDE;ABI
41006826;ANDRIATSITERENA-RAKOTOARIJAONA;EMMANUEL;ABI
41007365;ARCHIMEDE;LOUIS;ABI
41007278;ARISTANGELE;GUILLAUME;ABI
41007148;ARNASSALOM;XAVIER;ABI
41002237;ATTOUMANI;JULIEN;ABI
41007186;AVIMANA;BRECHARD;1
41003706;BEGUE;LUCAS;0
40009198;BEN ALI;MOHAMED ALI BACAR;ABI
41007019;BEURARD;KILIAN;4
41003802;BIGOT;LAURENT;5
41003375;BOINA;IBOUNI-YAMINE;0,8
40004450;BOUCHRANI;EL RAIS;0,8
41001620;BOUILLON;JUAN;ABI
41004992;BOVALO;ULRICH;0
41001871;BOYER;JUAN;1
41006337;BOYER;NATHAN;0
41000623;BOYER (RAPHAEL);JEAN RAPHAEL;ABI
41006687;BRILLARD;ETIENNE;ABI
41004001;BULIN;YANN;3
41002716;CABIAS;SIMON;5
40005086;CARPAYE;EDDY;ABI
41001809;CATHERINA (LUCAS);LUCAS;ABI
41006053;CELESTE;MAXIME;2
40005064;CERNEAU;DYLAN;0
41001309;CHAN;VINCENT;ABI
41006522;CHEN;CHRISTOPHE;0
41007196;CHENG CHUNG WAH;VINCENT;5
41006784;CONVERT;JEREMIE;0
39001089;COSSU;THOMAS;5
41006051;COUDEVYLLE;LEO;5
41005566;COUTIEN;RITCHY;ABI
40008025;DALEAU;ETIENNE;ABI
40005026;DALERY;EMERICK;0
41007588;DAMOUR;MELVYN;ABI
41007904;DARGONNE;EDDISON;ABI
41003074;DIORFLAR;KENNY;0
40001029;DJAMIL;BECHIR;1,6
39002820;DOMINGUE;SERGINHO;ABI
41006419;DOMPY;DESIRE;ABI
39004002;DUBY-DE-LAVERGNE;GUILLAUME;ABI
40005158;DUFOUR;LUCAS;5
40001744;ELLEAPADEATCHY;JEREMY;5
40005330;FAUVETTE;AUDRIC;0
36006266;FELICIDALI;LOIC;0
41003814;FILAIN;HENRI;3
41002015;FONTAINE;DJESON;ABI
41001302;FONTAINE;ULRICK;ABI
41001794;FRIBOURG;STEVEN;5
41002840;FULMART;ALAN;0
41004795;GAIDO AMOROS;ALEXIA;4
41000331;GALOPINE;JEREMY;ABI
41008195;GOUNOU;BEKEGUI RAJATH;ABI
39000774;GRONDIN;BENJAMIN;ABI
41004928;HAMADA;VAHID;ABI
41007572;HAMIDANE;YASSERDINE;ABI
41004450;HAMIDANE;YOUSSOUF;0
40002728;HERBAY;OCEEN ALBERT;ABI
41003778;HOARAU;ENZO;ABI
41000274;HOARAU;FLORENT;0
41001079;HOARAU;LAURIANE;5
41004333;HOARAU;ROMAIN;5
41000831;HOARAU;SLOAN;4
41000940;HOARAU (ANGIDE);ANGIDE;0
40002628;HOAREAU;CEDRIC;0
41001146;HOAREAU;KILLIAN;ABI
41000614;HOAREAU;NOAH;0
40002512;IDMONT;THEO;0,8
41007530;IMACHE;ROMAIN;ABI
41005330;INOUSSA SOUMAILA;YANNICK;ABI
40007104;ISHAKA;YASSEM;ABI
40000042;JIBANE;CATHY;ABI
36004201;KANHYE;MICHEL;0
41006141;KARIM MOUNTEZIR;MOHAMED;0
40006692;KLORE;JAHOUAD;ABI
40010282;KOMBI N' KONG;LESLY;5
41004524;LACHAPELLE;FENO;ABI
41000332;LAGAITE;JORDAN;0
41001578;LARAVINE;JEAN-PHILIPPE;ABI
41003892;LARICHESSE;SAMUEL JEAN MOISE;ABI
41004924;LEBIHAN;DYLAN;5
40002522;LEDENON;ARTHUR;ABI
41003011;LEJEUNE;THOMAS;ABI
41002746;LENIA (JULIAN);ERIC;0
41002721;LEOCADIE;PIERRE;5
39004851;LIBERTE;ARMANDO;ABI
40000714;LIRET;NOLAAN;ABI
41000958;LUCION;ILIAN;5
41006390;M LANAO;NAO;5
41001137;M'CHAMI;ISAAK;ABI
40004770;M'HADJI;FARID;ABI
40006559;M'SA;MOUNIBE;ABI
41002797;MAILLOT;DORIAN;0
40004148;MAJANI;FAIZ;0
40004739;MALBROUCK;THEO;0
41006769;MALHERBE--BORON;SHAD;0
41002695;MANGAR-RAZEBASSIA;NICOLAS;1
41006241;MANROUFOU;EL-FAYED;ABI
41001121;MANSARD;KENNY;ABI
41006271;MARBOIS;GABRIEL;ABI
41001927;MASCAREL;HODIJAH;2
41007584;MATEO;MANUEL;ABI
40007250;MAZEAU;KENNY;2
39005634;MBAE CARI;ABDOURAHIM;ABI
41003989;MOHAMED;ABOU;ABI
41004746;MOISSON;RAMON;ABI
41004325;MONITEUR;EMERICH;0
41008056;MORETTI;TAMA;1
39006207;MOUSSA;SAID;ABI
41000462;MOUSSA;SOIHIROUDINE;2
41001768;MOUTAMA RAMAYE;SAMUEL;0
37000484;MOUTOUVIRIN;JEAN-PHILIPPE;4
41006675;NATUKOUDDINE MOHAMED;DALLIL;ABI
40007317;NEDELEC;THEO;ABI
41002909;NOEL;QUENTIN;ABI
41007078;NOLF;JULIANA;ABI
41007142;NOOR MOHAMED;OMAR;ABI
41002841;PAQUIRY;MATTEO;3
41007981;PATEL;KARIM;ABI
40001167;PAVADE;SAMUEL;ABI
38003992;PAYET;CAMILLE;3,8
41004192;PAYET;JUSTY;0
41003100;PAYET;LEO;0
41006234;PAYET;THOMAS;ABI
40002068;PAYET;YOAN;ABI
41004538;PELOPS;ERWAN;0
40005100;PEROUMAL -ELLAMA;RIDCHIE;ABI
41007657;PERROT;DORIS;ABI
41001120;PIOT;ADRIEN;3
41004180;PIRRUS;NATHAN;ABI
38000755;POISSENOT;EVA;4
38000350;PORTHAULT;CEDRIC;ABI
41002402;RAMALINGOM;ALEXANDRE;5
41006038;RAMOUDOU;LUDOVIC;ABI
40005788;RANDRIAMAHEFA;FABIEN;ABI
41008284;RAOELIARISEHENO;ANDRIANTOKY;ABI
40006562;RAVOHITRARIVO;DYLAN;2
41004125;RAZEBASSIA;ANTHONY;ABI
41005364;REALE;DEVY;ABI
40008750;REALY;MARK;ABI
41007954;RICHARD DASSOT;KERY;ABI
41002733;RIVIERE;ANAIS;4,8
41001803;ROUSSEAU;CAROLE;0
41003327;SANTOULANGUE;NICOLAS;ABI
41004368;SAUSSEAU;YOHAN;ABI
39005723;SAUTRON;JULIEN;ABI
41003534;SAUTRON;NICOLAS;ABI
40004321;SAUTRON;QUENTIN;ABI
40003344;SAVIGNY;GAETAN;0
41004668;SERAPHIN;JUAN CLAUDE EMERY;0
41006211;SEVAGAMY;NATHAN;ABI
41002327;SINARETTY-RAMARETTY;ROMAN;4
41004959;SOILIHI MOINACHE;EL BAK;ABI
41003915;SOUPAYA VALLIAMA;YAEL;4
41003319;SOURIS;TIMOTHEE;ABI
38002933;TAIDE;EMMANUEL;0
41002998;TAILE MANIKOM;GABRIEL;ABI
41003093;TAYLLAMIN;JEAN-HENRICK;2,8
41003218;TECHER;BENJAMIN;2,8
40006162;TERRENTROY;BENJAMIN;3
40005160;THIBURCE;WILSON;ABI
41004552;THUONG HIME;LIAM;0
40002041;TIERPIED;ALEXANDRE;ABI
39000742;TINCOR;ROMAIN;ABI
40000880;TURPIN;FABIEN;ABI
40004487;VACHERON;MAX;0
38004823;VADIER;THEO;ABI
41006859;VELIA;ALARIC;ABI
41004872;VELIA;BASTIEN;0
41007033;VELLAYOUDOM;ALEXANDRE;ABI
41006098;VELLAYOUDOM CONERICAONDIN;JULES;ABI
41002644;VERSINI;THEO;3
41000480;VIALATTE;NATHANAEL;0
41006128;VIDOU;GABRIEL;ABI
39008805;VITTA;HATIM;0
40006219;WAI-LUNE;LOIC;ABI
41005222;WASHINGTON;KOBE;ABI
40000140;YOUSSOUF CHEBANI;MAEL;ABI
39001619;YSSOUFI;EL-ANZIZ;1
41004718;ZAFIARISON;CHRISTOPHER;0
